\relax 
\providecommand\HyperFirstAtBeginDocument{\AtBeginDocument}
\HyperFirstAtBeginDocument{\ifx\hyper@anchor\@undefined
\global\let\oldcontentsline\contentsline
\gdef\contentsline#1#2#3#4{\oldcontentsline{#1}{#2}{#3}}
\global\let\oldnewlabel\newlabel
\gdef\newlabel#1#2{\newlabelxx{#1}#2}
\gdef\newlabelxx#1#2#3#4#5#6{\oldnewlabel{#1}{{#2}{#3}}}
\AtEndDocument{\ifx\hyper@anchor\@undefined
\let\contentsline\oldcontentsline
\let\newlabel\oldnewlabel
\fi}
\fi}
\global\let\hyper@last\relax 
\gdef\HyperFirstAtBeginDocument#1{#1}
\providecommand\HyField@AuxAddToFields[1]{}
\@writefile{toc}{\contentsline {section}{\numberline {1}C++}{1}{section.1}}
\@writefile{toc}{\contentsline {subsection}{\numberline {1.1}基础知识}{1}{subsection.1.1}}
\@writefile{toc}{\contentsline {subsubsection}{\numberline {1.1.1}声明和定义的区别}{1}{subsubsection.1.1.1}}
\@writefile{toc}{\contentsline {subsubsection}{\numberline {1.1.2}指针和引用的区别}{1}{subsubsection.1.1.2}}
\@writefile{toc}{\contentsline {subsection}{\numberline {1.2}面向对象}{1}{subsection.1.2}}
\@writefile{toc}{\contentsline {subsubsection}{\numberline {1.2.1}条款04确定对象是用前已先被初始化初始化}{1}{subsubsection.1.2.1}}
\@writefile{toc}{\contentsline {subsection}{\numberline {1.3}继承}{2}{subsection.1.3}}
\@writefile{toc}{\contentsline {subsubsection}{\numberline {1.3.1}条款 32： 确定你的 public 继承塑模出 is-a 关系}{2}{subsubsection.1.3.1}}
\@writefile{toc}{\contentsline {subsubsection}{\numberline {1.3.2}条款 33： 避免遮掩继承而来的名称}{3}{subsubsection.1.3.2}}
\@writefile{toc}{\contentsline {subsection}{\numberline {1.4}虚函数}{3}{subsection.1.4}}
\@writefile{toc}{\contentsline {subsubsection}{\numberline {1.4.1}哪些函数不能声明为虚函数？}{3}{subsubsection.1.4.1}}
\@writefile{toc}{\contentsline {subsection}{\numberline {1.5}纯虚函数}{3}{subsection.1.5}}
\@writefile{toc}{\contentsline {subsubsection}{\numberline {1.5.1}条款 34： 区分接口继承和实现继承}{4}{subsubsection.1.5.1}}
\@writefile{toc}{\contentsline {subsubsection}{\numberline {1.5.2}容器}{4}{subsubsection.1.5.2}}
\@writefile{toc}{\contentsline {section}{\numberline {2}数据结构与算法}{4}{section.2}}
\@writefile{toc}{\contentsline {subsection}{\numberline {2.1}卡特兰数}{4}{subsection.2.1}}
\@writefile{toc}{\contentsline {subsection}{\numberline {2.2}\GenericError  {(inputenc)                }{Package inputenc Error: Unicode char \u8:栈 not set up for use with LaTeX}{See the inputenc package documentation for explanation.}{Your command was ignored.\MessageBreak Type  I <command> <return>  to replace it with another command,\MessageBreak or  <return>  to continue without it.}\GenericError  {(inputenc)                }{Package inputenc Error: Unicode char \u8:与 not set up for use with LaTeX}{See the inputenc package documentation for explanation.}{Your command was ignored.\MessageBreak Type  I <command> <return>  to replace it with another command,\MessageBreak or  <return>  to continue without it.}\GenericError  {(inputenc)                }{Package inputenc Error: Unicode char \u8:队 not set up for use with LaTeX}{See the inputenc package documentation for explanation.}{Your command was ignored.\MessageBreak Type  I <command> <return>  to replace it with another command,\MessageBreak or  <return>  to continue without it.}\GenericError  {(inputenc)                }{Package inputenc Error: Unicode char \u8:列 not set up for use with LaTeX}{See the inputenc package documentation for explanation.}{Your command was ignored.\MessageBreak Type  I <command> <return>  to replace it with another command,\MessageBreak or  <return>  to continue without it.}}{5}{subsection.2.2}}
\@writefile{toc}{\contentsline {subsubsection}{\numberline {2.2.1}\GenericError  {(inputenc)                }{Package inputenc Error: Unicode char \u8:求 not set up for use with LaTeX}{See the inputenc package documentation for explanation.}{Your command was ignored.\MessageBreak Type  I <command> <return>  to replace it with another command,\MessageBreak or  <return>  to continue without it.}\GenericError  {(inputenc)                }{Package inputenc Error: Unicode char \u8:一 not set up for use with LaTeX}{See the inputenc package documentation for explanation.}{Your command was ignored.\MessageBreak Type  I <command> <return>  to replace it with another command,\MessageBreak or  <return>  to continue without it.}\GenericError  {(inputenc)                }{Package inputenc Error: Unicode char \u8:个 not set up for use with LaTeX}{See the inputenc package documentation for explanation.}{Your command was ignored.\MessageBreak Type  I <command> <return>  to replace it with another command,\MessageBreak or  <return>  to continue without it.}\GenericError  {(inputenc)                }{Package inputenc Error: Unicode char \u8:入 not set up for use with LaTeX}{See the inputenc package documentation for explanation.}{Your command was ignored.\MessageBreak Type  I <command> <return>  to replace it with another command,\MessageBreak or  <return>  to continue without it.}\GenericError  {(inputenc)                }{Package inputenc Error: Unicode char \u8:栈 not set up for use with LaTeX}{See the inputenc package documentation for explanation.}{Your command was ignored.\MessageBreak Type  I <command> <return>  to replace it with another command,\MessageBreak or  <return>  to continue without it.}\GenericError  {(inputenc)                }{Package inputenc Error: Unicode char \u8:队 not set up for use with LaTeX}{See the inputenc package documentation for explanation.}{Your command was ignored.\MessageBreak Type  I <command> <return>  to replace it with another command,\MessageBreak or  <return>  to continue without it.}\GenericError  {(inputenc)                }{Package inputenc Error: Unicode char \u8:列 not set up for use with LaTeX}{See the inputenc package documentation for explanation.}{Your command was ignored.\MessageBreak Type  I <command> <return>  to replace it with another command,\MessageBreak or  <return>  to continue without it.}\GenericError  {(inputenc)                }{Package inputenc Error: Unicode char \u8:的 not set up for use with LaTeX}{See the inputenc package documentation for explanation.}{Your command was ignored.\MessageBreak Type  I <command> <return>  to replace it with another command,\MessageBreak or  <return>  to continue without it.}\GenericError  {(inputenc)                }{Package inputenc Error: Unicode char \u8:所 not set up for use with LaTeX}{See the inputenc package documentation for explanation.}{Your command was ignored.\MessageBreak Type  I <command> <return>  to replace it with another command,\MessageBreak or  <return>  to continue without it.}\GenericError  {(inputenc)                }{Package inputenc Error: Unicode char \u8:有 not set up for use with LaTeX}{See the inputenc package documentation for explanation.}{Your command was ignored.\MessageBreak Type  I <command> <return>  to replace it with another command,\MessageBreak or  <return>  to continue without it.}\GenericError  {(inputenc)                }{Package inputenc Error: Unicode char \u8:出 not set up for use with LaTeX}{See the inputenc package documentation for explanation.}{Your command was ignored.\MessageBreak Type  I <command> <return>  to replace it with another command,\MessageBreak or  <return>  to continue without it.}\GenericError  {(inputenc)                }{Package inputenc Error: Unicode char \u8:栈 not set up for use with LaTeX}{See the inputenc package documentation for explanation.}{Your command was ignored.\MessageBreak Type  I <command> <return>  to replace it with another command,\MessageBreak or  <return>  to continue without it.}\GenericError  {(inputenc)                }{Package inputenc Error: Unicode char \u8:序 not set up for use with LaTeX}{See the inputenc package documentation for explanation.}{Your command was ignored.\MessageBreak Type  I <command> <return>  to replace it with another command,\MessageBreak or  <return>  to continue without it.}\GenericError  {(inputenc)                }{Package inputenc Error: Unicode char \u8:列 not set up for use with LaTeX}{See the inputenc package documentation for explanation.}{Your command was ignored.\MessageBreak Type  I <command> <return>  to replace it with another command,\MessageBreak or  <return>  to continue without it.}\GenericError  {(inputenc)                }{Package inputenc Error: Unicode char \u8:的 not set up for use with LaTeX}{See the inputenc package documentation for explanation.}{Your command was ignored.\MessageBreak Type  I <command> <return>  to replace it with another command,\MessageBreak or  <return>  to continue without it.}\GenericError  {(inputenc)                }{Package inputenc Error: Unicode char \u8:个 not set up for use with LaTeX}{See the inputenc package documentation for explanation.}{Your command was ignored.\MessageBreak Type  I <command> <return>  to replace it with another command,\MessageBreak or  <return>  to continue without it.}\GenericError  {(inputenc)                }{Package inputenc Error: Unicode char \u8:数 not set up for use with LaTeX}{See the inputenc package documentation for explanation.}{Your command was ignored.\MessageBreak Type  I <command> <return>  to replace it with another command,\MessageBreak or  <return>  to continue without it.}\GenericError  {(inputenc)                }{Package inputenc Error: Unicode char \u8:？ not set up for use with LaTeX}{See the inputenc package documentation for explanation.}{Your command was ignored.\MessageBreak Type  I <command> <return>  to replace it with another command,\MessageBreak or  <return>  to continue without it.}}{5}{subsubsection.2.2.1}}
\@writefile{toc}{\contentsline {subsection}{\numberline {2.3}\GenericError  {(inputenc)                }{Package inputenc Error: Unicode char \u8:位 not set up for use with LaTeX}{See the inputenc package documentation for explanation.}{Your command was ignored.\MessageBreak Type  I <command> <return>  to replace it with another command,\MessageBreak or  <return>  to continue without it.}\GenericError  {(inputenc)                }{Package inputenc Error: Unicode char \u8:运 not set up for use with LaTeX}{See the inputenc package documentation for explanation.}{Your command was ignored.\MessageBreak Type  I <command> <return>  to replace it with another command,\MessageBreak or  <return>  to continue without it.}\GenericError  {(inputenc)                }{Package inputenc Error: Unicode char \u8:算 not set up for use with LaTeX}{See the inputenc package documentation for explanation.}{Your command was ignored.\MessageBreak Type  I <command> <return>  to replace it with another command,\MessageBreak or  <return>  to continue without it.}\GenericError  {(inputenc)                }{Package inputenc Error: Unicode char \u8:常 not set up for use with LaTeX}{See the inputenc package documentation for explanation.}{Your command was ignored.\MessageBreak Type  I <command> <return>  to replace it with another command,\MessageBreak or  <return>  to continue without it.}\GenericError  {(inputenc)                }{Package inputenc Error: Unicode char \u8:见 not set up for use with LaTeX}{See the inputenc package documentation for explanation.}{Your command was ignored.\MessageBreak Type  I <command> <return>  to replace it with another command,\MessageBreak or  <return>  to continue without it.}\GenericError  {(inputenc)                }{Package inputenc Error: Unicode char \u8:面 not set up for use with LaTeX}{See the inputenc package documentation for explanation.}{Your command was ignored.\MessageBreak Type  I <command> <return>  to replace it with another command,\MessageBreak or  <return>  to continue without it.}\GenericError  {(inputenc)                }{Package inputenc Error: Unicode char \u8:试 not set up for use with LaTeX}{See the inputenc package documentation for explanation.}{Your command was ignored.\MessageBreak Type  I <command> <return>  to replace it with another command,\MessageBreak or  <return>  to continue without it.}\GenericError  {(inputenc)                }{Package inputenc Error: Unicode char \u8:题 not set up for use with LaTeX}{See the inputenc package documentation for explanation.}{Your command was ignored.\MessageBreak Type  I <command> <return>  to replace it with another command,\MessageBreak or  <return>  to continue without it.}}{5}{subsection.2.3}}
\@writefile{toc}{\contentsline {subsubsection}{\numberline {2.3.1}\GenericError  {(inputenc)                }{Package inputenc Error: Unicode char \u8:不 not set up for use with LaTeX}{See the inputenc package documentation for explanation.}{Your command was ignored.\MessageBreak Type  I <command> <return>  to replace it with another command,\MessageBreak or  <return>  to continue without it.}\GenericError  {(inputenc)                }{Package inputenc Error: Unicode char \u8:用 not set up for use with LaTeX}{See the inputenc package documentation for explanation.}{Your command was ignored.\MessageBreak Type  I <command> <return>  to replace it with another command,\MessageBreak or  <return>  to continue without it.}\GenericError  {(inputenc)                }{Package inputenc Error: Unicode char \u8:临 not set up for use with LaTeX}{See the inputenc package documentation for explanation.}{Your command was ignored.\MessageBreak Type  I <command> <return>  to replace it with another command,\MessageBreak or  <return>  to continue without it.}\GenericError  {(inputenc)                }{Package inputenc Error: Unicode char \u8:时 not set up for use with LaTeX}{See the inputenc package documentation for explanation.}{Your command was ignored.\MessageBreak Type  I <command> <return>  to replace it with another command,\MessageBreak or  <return>  to continue without it.}\GenericError  {(inputenc)                }{Package inputenc Error: Unicode char \u8:变 not set up for use with LaTeX}{See the inputenc package documentation for explanation.}{Your command was ignored.\MessageBreak Type  I <command> <return>  to replace it with another command,\MessageBreak or  <return>  to continue without it.}\GenericError  {(inputenc)                }{Package inputenc Error: Unicode char \u8:量 not set up for use with LaTeX}{See the inputenc package documentation for explanation.}{Your command was ignored.\MessageBreak Type  I <command> <return>  to replace it with another command,\MessageBreak or  <return>  to continue without it.}\GenericError  {(inputenc)                }{Package inputenc Error: Unicode char \u8:交 not set up for use with LaTeX}{See the inputenc package documentation for explanation.}{Your command was ignored.\MessageBreak Type  I <command> <return>  to replace it with another command,\MessageBreak or  <return>  to continue without it.}\GenericError  {(inputenc)                }{Package inputenc Error: Unicode char \u8:换 not set up for use with LaTeX}{See the inputenc package documentation for explanation.}{Your command was ignored.\MessageBreak Type  I <command> <return>  to replace it with another command,\MessageBreak or  <return>  to continue without it.}\GenericError  {(inputenc)                }{Package inputenc Error: Unicode char \u8:两 not set up for use with LaTeX}{See the inputenc package documentation for explanation.}{Your command was ignored.\MessageBreak Type  I <command> <return>  to replace it with another command,\MessageBreak or  <return>  to continue without it.}\GenericError  {(inputenc)                }{Package inputenc Error: Unicode char \u8:个 not set up for use with LaTeX}{See the inputenc package documentation for explanation.}{Your command was ignored.\MessageBreak Type  I <command> <return>  to replace it with another command,\MessageBreak or  <return>  to continue without it.}\GenericError  {(inputenc)                }{Package inputenc Error: Unicode char \u8:整 not set up for use with LaTeX}{See the inputenc package documentation for explanation.}{Your command was ignored.\MessageBreak Type  I <command> <return>  to replace it with another command,\MessageBreak or  <return>  to continue without it.}\GenericError  {(inputenc)                }{Package inputenc Error: Unicode char \u8:数 not set up for use with LaTeX}{See the inputenc package documentation for explanation.}{Your command was ignored.\MessageBreak Type  I <command> <return>  to replace it with another command,\MessageBreak or  <return>  to continue without it.}\GenericError  {(inputenc)                }{Package inputenc Error: Unicode char \u8:。 not set up for use with LaTeX}{See the inputenc package documentation for explanation.}{Your command was ignored.\MessageBreak Type  I <command> <return>  to replace it with another command,\MessageBreak or  <return>  to continue without it.}}{5}{subsubsection.2.3.1}}
\@writefile{toc}{\contentsline {subsubsection}{\numberline {2.3.2}\GenericError  {(inputenc)                }{Package inputenc Error: Unicode char \u8:一 not set up for use with LaTeX}{See the inputenc package documentation for explanation.}{Your command was ignored.\MessageBreak Type  I <command> <return>  to replace it with another command,\MessageBreak or  <return>  to continue without it.}\GenericError  {(inputenc)                }{Package inputenc Error: Unicode char \u8:个 not set up for use with LaTeX}{See the inputenc package documentation for explanation.}{Your command was ignored.\MessageBreak Type  I <command> <return>  to replace it with another command,\MessageBreak or  <return>  to continue without it.}\GenericError  {(inputenc)                }{Package inputenc Error: Unicode char \u8:数 not set up for use with LaTeX}{See the inputenc package documentation for explanation.}{Your command was ignored.\MessageBreak Type  I <command> <return>  to replace it with another command,\MessageBreak or  <return>  to continue without it.}\GenericError  {(inputenc)                }{Package inputenc Error: Unicode char \u8:组 not set up for use with LaTeX}{See the inputenc package documentation for explanation.}{Your command was ignored.\MessageBreak Type  I <command> <return>  to replace it with another command,\MessageBreak or  <return>  to continue without it.}\GenericError  {(inputenc)                }{Package inputenc Error: Unicode char \u8:中 not set up for use with LaTeX}{See the inputenc package documentation for explanation.}{Your command was ignored.\MessageBreak Type  I <command> <return>  to replace it with another command,\MessageBreak or  <return>  to continue without it.}\GenericError  {(inputenc)                }{Package inputenc Error: Unicode char \u8:的 not set up for use with LaTeX}{See the inputenc package documentation for explanation.}{Your command was ignored.\MessageBreak Type  I <command> <return>  to replace it with another command,\MessageBreak or  <return>  to continue without it.}\GenericError  {(inputenc)                }{Package inputenc Error: Unicode char \u8:整 not set up for use with LaTeX}{See the inputenc package documentation for explanation.}{Your command was ignored.\MessageBreak Type  I <command> <return>  to replace it with another command,\MessageBreak or  <return>  to continue without it.}\GenericError  {(inputenc)                }{Package inputenc Error: Unicode char \u8:数 not set up for use with LaTeX}{See the inputenc package documentation for explanation.}{Your command was ignored.\MessageBreak Type  I <command> <return>  to replace it with another command,\MessageBreak or  <return>  to continue without it.}\GenericError  {(inputenc)                }{Package inputenc Error: Unicode char \u8:只 not set up for use with LaTeX}{See the inputenc package documentation for explanation.}{Your command was ignored.\MessageBreak Type  I <command> <return>  to replace it with another command,\MessageBreak or  <return>  to continue without it.}\GenericError  {(inputenc)                }{Package inputenc Error: Unicode char \u8:有 not set up for use with LaTeX}{See the inputenc package documentation for explanation.}{Your command was ignored.\MessageBreak Type  I <command> <return>  to replace it with another command,\MessageBreak or  <return>  to continue without it.}1\GenericError  {(inputenc)                }{Package inputenc Error: Unicode char \u8:个 not set up for use with LaTeX}{See the inputenc package documentation for explanation.}{Your command was ignored.\MessageBreak Type  I <command> <return>  to replace it with another command,\MessageBreak or  <return>  to continue without it.}\GenericError  {(inputenc)                }{Package inputenc Error: Unicode char \u8:出 not set up for use with LaTeX}{See the inputenc package documentation for explanation.}{Your command was ignored.\MessageBreak Type  I <command> <return>  to replace it with another command,\MessageBreak or  <return>  to continue without it.}\GenericError  {(inputenc)                }{Package inputenc Error: Unicode char \u8:现 not set up for use with LaTeX}{See the inputenc package documentation for explanation.}{Your command was ignored.\MessageBreak Type  I <command> <return>  to replace it with another command,\MessageBreak or  <return>  to continue without it.}1\GenericError  {(inputenc)                }{Package inputenc Error: Unicode char \u8:次 not set up for use with LaTeX}{See the inputenc package documentation for explanation.}{Your command was ignored.\MessageBreak Type  I <command> <return>  to replace it with another command,\MessageBreak or  <return>  to continue without it.}\GenericError  {(inputenc)                }{Package inputenc Error: Unicode char \u8:， not set up for use with LaTeX}{See the inputenc package documentation for explanation.}{Your command was ignored.\MessageBreak Type  I <command> <return>  to replace it with another command,\MessageBreak or  <return>  to continue without it.}\GenericError  {(inputenc)                }{Package inputenc Error: Unicode char \u8:其 not set up for use with LaTeX}{See the inputenc package documentation for explanation.}{Your command was ignored.\MessageBreak Type  I <command> <return>  to replace it with another command,\MessageBreak or  <return>  to continue without it.}\GenericError  {(inputenc)                }{Package inputenc Error: Unicode char \u8:余 not set up for use with LaTeX}{See the inputenc package documentation for explanation.}{Your command was ignored.\MessageBreak Type  I <command> <return>  to replace it with another command,\MessageBreak or  <return>  to continue without it.}\GenericError  {(inputenc)                }{Package inputenc Error: Unicode char \u8:数 not set up for use with LaTeX}{See the inputenc package documentation for explanation.}{Your command was ignored.\MessageBreak Type  I <command> <return>  to replace it with another command,\MessageBreak or  <return>  to continue without it.}\GenericError  {(inputenc)                }{Package inputenc Error: Unicode char \u8:字 not set up for use with LaTeX}{See the inputenc package documentation for explanation.}{Your command was ignored.\MessageBreak Type  I <command> <return>  to replace it with another command,\MessageBreak or  <return>  to continue without it.}\GenericError  {(inputenc)                }{Package inputenc Error: Unicode char \u8:都 not set up for use with LaTeX}{See the inputenc package documentation for explanation.}{Your command was ignored.\MessageBreak Type  I <command> <return>  to replace it with another command,\MessageBreak or  <return>  to continue without it.}\GenericError  {(inputenc)                }{Package inputenc Error: Unicode char \u8:出 not set up for use with LaTeX}{See the inputenc package documentation for explanation.}{Your command was ignored.\MessageBreak Type  I <command> <return>  to replace it with another command,\MessageBreak or  <return>  to continue without it.}\GenericError  {(inputenc)                }{Package inputenc Error: Unicode char \u8:现 not set up for use with LaTeX}{See the inputenc package documentation for explanation.}{Your command was ignored.\MessageBreak Type  I <command> <return>  to replace it with another command,\MessageBreak or  <return>  to continue without it.}\GenericError  {(inputenc)                }{Package inputenc Error: Unicode char \u8:两 not set up for use with LaTeX}{See the inputenc package documentation for explanation.}{Your command was ignored.\MessageBreak Type  I <command> <return>  to replace it with another command,\MessageBreak or  <return>  to continue without it.}\GenericError  {(inputenc)                }{Package inputenc Error: Unicode char \u8:次 not set up for use with LaTeX}{See the inputenc package documentation for explanation.}{Your command was ignored.\MessageBreak Type  I <command> <return>  to replace it with another command,\MessageBreak or  <return>  to continue without it.}\GenericError  {(inputenc)                }{Package inputenc Error: Unicode char \u8:， not set up for use with LaTeX}{See the inputenc package documentation for explanation.}{Your command was ignored.\MessageBreak Type  I <command> <return>  to replace it with another command,\MessageBreak or  <return>  to continue without it.}\GenericError  {(inputenc)                }{Package inputenc Error: Unicode char \u8:请 not set up for use with LaTeX}{See the inputenc package documentation for explanation.}{Your command was ignored.\MessageBreak Type  I <command> <return>  to replace it with another command,\MessageBreak or  <return>  to continue without it.}\GenericError  {(inputenc)                }{Package inputenc Error: Unicode char \u8:找 not set up for use with LaTeX}{See the inputenc package documentation for explanation.}{Your command was ignored.\MessageBreak Type  I <command> <return>  to replace it with another command,\MessageBreak or  <return>  to continue without it.}\GenericError  {(inputenc)                }{Package inputenc Error: Unicode char \u8:出 not set up for use with LaTeX}{See the inputenc package documentation for explanation.}{Your command was ignored.\MessageBreak Type  I <command> <return>  to replace it with another command,\MessageBreak or  <return>  to continue without it.}\GenericError  {(inputenc)                }{Package inputenc Error: Unicode char \u8:， not set up for use with LaTeX}{See the inputenc package documentation for explanation.}{Your command was ignored.\MessageBreak Type  I <command> <return>  to replace it with another command,\MessageBreak or  <return>  to continue without it.}\GenericError  {(inputenc)                }{Package inputenc Error: Unicode char \u8:这 not set up for use with LaTeX}{See the inputenc package documentation for explanation.}{Your command was ignored.\MessageBreak Type  I <command> <return>  to replace it with another command,\MessageBreak or  <return>  to continue without it.}\GenericError  {(inputenc)                }{Package inputenc Error: Unicode char \u8:个 not set up for use with LaTeX}{See the inputenc package documentation for explanation.}{Your command was ignored.\MessageBreak Type  I <command> <return>  to replace it with another command,\MessageBreak or  <return>  to continue without it.}\GenericError  {(inputenc)                }{Package inputenc Error: Unicode char \u8:出 not set up for use with LaTeX}{See the inputenc package documentation for explanation.}{Your command was ignored.\MessageBreak Type  I <command> <return>  to replace it with another command,\MessageBreak or  <return>  to continue without it.}\GenericError  {(inputenc)                }{Package inputenc Error: Unicode char \u8:现 not set up for use with LaTeX}{See the inputenc package documentation for explanation.}{Your command was ignored.\MessageBreak Type  I <command> <return>  to replace it with another command,\MessageBreak or  <return>  to continue without it.}\GenericError  {(inputenc)                }{Package inputenc Error: Unicode char \u8:一 not set up for use with LaTeX}{See the inputenc package documentation for explanation.}{Your command was ignored.\MessageBreak Type  I <command> <return>  to replace it with another command,\MessageBreak or  <return>  to continue without it.}\GenericError  {(inputenc)                }{Package inputenc Error: Unicode char \u8:次 not set up for use with LaTeX}{See the inputenc package documentation for explanation.}{Your command was ignored.\MessageBreak Type  I <command> <return>  to replace it with another command,\MessageBreak or  <return>  to continue without it.}\GenericError  {(inputenc)                }{Package inputenc Error: Unicode char \u8:的 not set up for use with LaTeX}{See the inputenc package documentation for explanation.}{Your command was ignored.\MessageBreak Type  I <command> <return>  to replace it with another command,\MessageBreak or  <return>  to continue without it.}\GenericError  {(inputenc)                }{Package inputenc Error: Unicode char \u8:数 not set up for use with LaTeX}{See the inputenc package documentation for explanation.}{Your command was ignored.\MessageBreak Type  I <command> <return>  to replace it with another command,\MessageBreak or  <return>  to continue without it.}\GenericError  {(inputenc)                }{Package inputenc Error: Unicode char \u8:字 not set up for use with LaTeX}{See the inputenc package documentation for explanation.}{Your command was ignored.\MessageBreak Type  I <command> <return>  to replace it with another command,\MessageBreak or  <return>  to continue without it.}}{5}{subsubsection.2.3.2}}
\@writefile{toc}{\contentsline {subsubsection}{\numberline {2.3.3}\GenericError  {(inputenc)                }{Package inputenc Error: Unicode char \u8:一 not set up for use with LaTeX}{See the inputenc package documentation for explanation.}{Your command was ignored.\MessageBreak Type  I <command> <return>  to replace it with another command,\MessageBreak or  <return>  to continue without it.}\GenericError  {(inputenc)                }{Package inputenc Error: Unicode char \u8:个 not set up for use with LaTeX}{See the inputenc package documentation for explanation.}{Your command was ignored.\MessageBreak Type  I <command> <return>  to replace it with another command,\MessageBreak or  <return>  to continue without it.}\GenericError  {(inputenc)                }{Package inputenc Error: Unicode char \u8:数 not set up for use with LaTeX}{See the inputenc package documentation for explanation.}{Your command was ignored.\MessageBreak Type  I <command> <return>  to replace it with another command,\MessageBreak or  <return>  to continue without it.}\GenericError  {(inputenc)                }{Package inputenc Error: Unicode char \u8:组 not set up for use with LaTeX}{See the inputenc package documentation for explanation.}{Your command was ignored.\MessageBreak Type  I <command> <return>  to replace it with another command,\MessageBreak or  <return>  to continue without it.}\GenericError  {(inputenc)                }{Package inputenc Error: Unicode char \u8:中 not set up for use with LaTeX}{See the inputenc package documentation for explanation.}{Your command was ignored.\MessageBreak Type  I <command> <return>  to replace it with another command,\MessageBreak or  <return>  to continue without it.}\GenericError  {(inputenc)                }{Package inputenc Error: Unicode char \u8:的 not set up for use with LaTeX}{See the inputenc package documentation for explanation.}{Your command was ignored.\MessageBreak Type  I <command> <return>  to replace it with another command,\MessageBreak or  <return>  to continue without it.}\GenericError  {(inputenc)                }{Package inputenc Error: Unicode char \u8:整 not set up for use with LaTeX}{See the inputenc package documentation for explanation.}{Your command was ignored.\MessageBreak Type  I <command> <return>  to replace it with another command,\MessageBreak or  <return>  to continue without it.}\GenericError  {(inputenc)                }{Package inputenc Error: Unicode char \u8:数 not set up for use with LaTeX}{See the inputenc package documentation for explanation.}{Your command was ignored.\MessageBreak Type  I <command> <return>  to replace it with another command,\MessageBreak or  <return>  to continue without it.}\GenericError  {(inputenc)                }{Package inputenc Error: Unicode char \u8:只 not set up for use with LaTeX}{See the inputenc package documentation for explanation.}{Your command was ignored.\MessageBreak Type  I <command> <return>  to replace it with another command,\MessageBreak or  <return>  to continue without it.}\GenericError  {(inputenc)                }{Package inputenc Error: Unicode char \u8:有 not set up for use with LaTeX}{See the inputenc package documentation for explanation.}{Your command was ignored.\MessageBreak Type  I <command> <return>  to replace it with another command,\MessageBreak or  <return>  to continue without it.}2\GenericError  {(inputenc)                }{Package inputenc Error: Unicode char \u8:个 not set up for use with LaTeX}{See the inputenc package documentation for explanation.}{Your command was ignored.\MessageBreak Type  I <command> <return>  to replace it with another command,\MessageBreak or  <return>  to continue without it.}\GenericError  {(inputenc)                }{Package inputenc Error: Unicode char \u8:出 not set up for use with LaTeX}{See the inputenc package documentation for explanation.}{Your command was ignored.\MessageBreak Type  I <command> <return>  to replace it with another command,\MessageBreak or  <return>  to continue without it.}\GenericError  {(inputenc)                }{Package inputenc Error: Unicode char \u8:现 not set up for use with LaTeX}{See the inputenc package documentation for explanation.}{Your command was ignored.\MessageBreak Type  I <command> <return>  to replace it with another command,\MessageBreak or  <return>  to continue without it.}1\GenericError  {(inputenc)                }{Package inputenc Error: Unicode char \u8:次 not set up for use with LaTeX}{See the inputenc package documentation for explanation.}{Your command was ignored.\MessageBreak Type  I <command> <return>  to replace it with another command,\MessageBreak or  <return>  to continue without it.}\GenericError  {(inputenc)                }{Package inputenc Error: Unicode char \u8:， not set up for use with LaTeX}{See the inputenc package documentation for explanation.}{Your command was ignored.\MessageBreak Type  I <command> <return>  to replace it with another command,\MessageBreak or  <return>  to continue without it.}\GenericError  {(inputenc)                }{Package inputenc Error: Unicode char \u8:其 not set up for use with LaTeX}{See the inputenc package documentation for explanation.}{Your command was ignored.\MessageBreak Type  I <command> <return>  to replace it with another command,\MessageBreak or  <return>  to continue without it.}\GenericError  {(inputenc)                }{Package inputenc Error: Unicode char \u8:余 not set up for use with LaTeX}{See the inputenc package documentation for explanation.}{Your command was ignored.\MessageBreak Type  I <command> <return>  to replace it with another command,\MessageBreak or  <return>  to continue without it.}\GenericError  {(inputenc)                }{Package inputenc Error: Unicode char \u8:数 not set up for use with LaTeX}{See the inputenc package documentation for explanation.}{Your command was ignored.\MessageBreak Type  I <command> <return>  to replace it with another command,\MessageBreak or  <return>  to continue without it.}\GenericError  {(inputenc)                }{Package inputenc Error: Unicode char \u8:字 not set up for use with LaTeX}{See the inputenc package documentation for explanation.}{Your command was ignored.\MessageBreak Type  I <command> <return>  to replace it with another command,\MessageBreak or  <return>  to continue without it.}\GenericError  {(inputenc)                }{Package inputenc Error: Unicode char \u8:都 not set up for use with LaTeX}{See the inputenc package documentation for explanation.}{Your command was ignored.\MessageBreak Type  I <command> <return>  to replace it with another command,\MessageBreak or  <return>  to continue without it.}\GenericError  {(inputenc)                }{Package inputenc Error: Unicode char \u8:出 not set up for use with LaTeX}{See the inputenc package documentation for explanation.}{Your command was ignored.\MessageBreak Type  I <command> <return>  to replace it with another command,\MessageBreak or  <return>  to continue without it.}\GenericError  {(inputenc)                }{Package inputenc Error: Unicode char \u8:现 not set up for use with LaTeX}{See the inputenc package documentation for explanation.}{Your command was ignored.\MessageBreak Type  I <command> <return>  to replace it with another command,\MessageBreak or  <return>  to continue without it.}\GenericError  {(inputenc)                }{Package inputenc Error: Unicode char \u8:两 not set up for use with LaTeX}{See the inputenc package documentation for explanation.}{Your command was ignored.\MessageBreak Type  I <command> <return>  to replace it with another command,\MessageBreak or  <return>  to continue without it.}\GenericError  {(inputenc)                }{Package inputenc Error: Unicode char \u8:次 not set up for use with LaTeX}{See the inputenc package documentation for explanation.}{Your command was ignored.\MessageBreak Type  I <command> <return>  to replace it with another command,\MessageBreak or  <return>  to continue without it.}\GenericError  {(inputenc)                }{Package inputenc Error: Unicode char \u8:， not set up for use with LaTeX}{See the inputenc package documentation for explanation.}{Your command was ignored.\MessageBreak Type  I <command> <return>  to replace it with another command,\MessageBreak or  <return>  to continue without it.}\GenericError  {(inputenc)                }{Package inputenc Error: Unicode char \u8:请 not set up for use with LaTeX}{See the inputenc package documentation for explanation.}{Your command was ignored.\MessageBreak Type  I <command> <return>  to replace it with another command,\MessageBreak or  <return>  to continue without it.}\GenericError  {(inputenc)                }{Package inputenc Error: Unicode char \u8:找 not set up for use with LaTeX}{See the inputenc package documentation for explanation.}{Your command was ignored.\MessageBreak Type  I <command> <return>  to replace it with another command,\MessageBreak or  <return>  to continue without it.}\GenericError  {(inputenc)                }{Package inputenc Error: Unicode char \u8:出 not set up for use with LaTeX}{See the inputenc package documentation for explanation.}{Your command was ignored.\MessageBreak Type  I <command> <return>  to replace it with another command,\MessageBreak or  <return>  to continue without it.}\GenericError  {(inputenc)                }{Package inputenc Error: Unicode char \u8:， not set up for use with LaTeX}{See the inputenc package documentation for explanation.}{Your command was ignored.\MessageBreak Type  I <command> <return>  to replace it with another command,\MessageBreak or  <return>  to continue without it.}\GenericError  {(inputenc)                }{Package inputenc Error: Unicode char \u8:这 not set up for use with LaTeX}{See the inputenc package documentation for explanation.}{Your command was ignored.\MessageBreak Type  I <command> <return>  to replace it with another command,\MessageBreak or  <return>  to continue without it.}2\GenericError  {(inputenc)                }{Package inputenc Error: Unicode char \u8:个 not set up for use with LaTeX}{See the inputenc package documentation for explanation.}{Your command was ignored.\MessageBreak Type  I <command> <return>  to replace it with another command,\MessageBreak or  <return>  to continue without it.}\GenericError  {(inputenc)                }{Package inputenc Error: Unicode char \u8:出 not set up for use with LaTeX}{See the inputenc package documentation for explanation.}{Your command was ignored.\MessageBreak Type  I <command> <return>  to replace it with another command,\MessageBreak or  <return>  to continue without it.}\GenericError  {(inputenc)                }{Package inputenc Error: Unicode char \u8:现 not set up for use with LaTeX}{See the inputenc package documentation for explanation.}{Your command was ignored.\MessageBreak Type  I <command> <return>  to replace it with another command,\MessageBreak or  <return>  to continue without it.}\GenericError  {(inputenc)                }{Package inputenc Error: Unicode char \u8:一 not set up for use with LaTeX}{See the inputenc package documentation for explanation.}{Your command was ignored.\MessageBreak Type  I <command> <return>  to replace it with another command,\MessageBreak or  <return>  to continue without it.}\GenericError  {(inputenc)                }{Package inputenc Error: Unicode char \u8:次 not set up for use with LaTeX}{See the inputenc package documentation for explanation.}{Your command was ignored.\MessageBreak Type  I <command> <return>  to replace it with another command,\MessageBreak or  <return>  to continue without it.}\GenericError  {(inputenc)                }{Package inputenc Error: Unicode char \u8:的 not set up for use with LaTeX}{See the inputenc package documentation for explanation.}{Your command was ignored.\MessageBreak Type  I <command> <return>  to replace it with another command,\MessageBreak or  <return>  to continue without it.}\GenericError  {(inputenc)                }{Package inputenc Error: Unicode char \u8:数 not set up for use with LaTeX}{See the inputenc package documentation for explanation.}{Your command was ignored.\MessageBreak Type  I <command> <return>  to replace it with another command,\MessageBreak or  <return>  to continue without it.}\GenericError  {(inputenc)                }{Package inputenc Error: Unicode char \u8:字 not set up for use with LaTeX}{See the inputenc package documentation for explanation.}{Your command was ignored.\MessageBreak Type  I <command> <return>  to replace it with another command,\MessageBreak or  <return>  to continue without it.}}{5}{subsubsection.2.3.3}}
\@writefile{toc}{\contentsline {subsubsection}{\numberline {2.3.4}统计整数 $n$ 的二进制表示中1的个数}{6}{subsubsection.2.3.4}}
\newlabel{count_one_bits}{{2.3.4}{6}{统计整数 $n$ 的二进制表示中1的个数\relax }{subsubsection.2.3.4}{}}
\@writefile{toc}{\contentsline {subsubsection}{\numberline {2.3.5}判断一个数字是否为2的幂次}{7}{subsubsection.2.3.5}}
\@writefile{toc}{\contentsline {subsubsection}{\numberline {2.3.6}判断一个32位数字数字是否为4的幂次}{7}{subsubsection.2.3.6}}
\@writefile{toc}{\contentsline {subsection}{\numberline {2.4}\GenericError  {(inputenc)                }{Package inputenc Error: Unicode char \u8:动 not set up for use with LaTeX}{See the inputenc package documentation for explanation.}{Your command was ignored.\MessageBreak Type  I <command> <return>  to replace it with another command,\MessageBreak or  <return>  to continue without it.}\GenericError  {(inputenc)                }{Package inputenc Error: Unicode char \u8:态 not set up for use with LaTeX}{See the inputenc package documentation for explanation.}{Your command was ignored.\MessageBreak Type  I <command> <return>  to replace it with another command,\MessageBreak or  <return>  to continue without it.}\GenericError  {(inputenc)                }{Package inputenc Error: Unicode char \u8:规 not set up for use with LaTeX}{See the inputenc package documentation for explanation.}{Your command was ignored.\MessageBreak Type  I <command> <return>  to replace it with another command,\MessageBreak or  <return>  to continue without it.}\GenericError  {(inputenc)                }{Package inputenc Error: Unicode char \u8:划 not set up for use with LaTeX}{See the inputenc package documentation for explanation.}{Your command was ignored.\MessageBreak Type  I <command> <return>  to replace it with another command,\MessageBreak or  <return>  to continue without it.}}{8}{subsection.2.4}}
\@writefile{toc}{\contentsline {subsubsection}{\numberline {2.4.1}\GenericError  {(inputenc)                }{Package inputenc Error: Unicode char \u8:最 not set up for use with LaTeX}{See the inputenc package documentation for explanation.}{Your command was ignored.\MessageBreak Type  I <command> <return>  to replace it with another command,\MessageBreak or  <return>  to continue without it.}\GenericError  {(inputenc)                }{Package inputenc Error: Unicode char \u8:长 not set up for use with LaTeX}{See the inputenc package documentation for explanation.}{Your command was ignored.\MessageBreak Type  I <command> <return>  to replace it with another command,\MessageBreak or  <return>  to continue without it.}\GenericError  {(inputenc)                }{Package inputenc Error: Unicode char \u8:公 not set up for use with LaTeX}{See the inputenc package documentation for explanation.}{Your command was ignored.\MessageBreak Type  I <command> <return>  to replace it with another command,\MessageBreak or  <return>  to continue without it.}\GenericError  {(inputenc)                }{Package inputenc Error: Unicode char \u8:共 not set up for use with LaTeX}{See the inputenc package documentation for explanation.}{Your command was ignored.\MessageBreak Type  I <command> <return>  to replace it with another command,\MessageBreak or  <return>  to continue without it.}\GenericError  {(inputenc)                }{Package inputenc Error: Unicode char \u8:子 not set up for use with LaTeX}{See the inputenc package documentation for explanation.}{Your command was ignored.\MessageBreak Type  I <command> <return>  to replace it with another command,\MessageBreak or  <return>  to continue without it.}\GenericError  {(inputenc)                }{Package inputenc Error: Unicode char \u8:序 not set up for use with LaTeX}{See the inputenc package documentation for explanation.}{Your command was ignored.\MessageBreak Type  I <command> <return>  to replace it with another command,\MessageBreak or  <return>  to continue without it.}\GenericError  {(inputenc)                }{Package inputenc Error: Unicode char \u8:列 not set up for use with LaTeX}{See the inputenc package documentation for explanation.}{Your command was ignored.\MessageBreak Type  I <command> <return>  to replace it with another command,\MessageBreak or  <return>  to continue without it.}\GenericError  {(inputenc)                }{Package inputenc Error: Unicode char \u8:问 not set up for use with LaTeX}{See the inputenc package documentation for explanation.}{Your command was ignored.\MessageBreak Type  I <command> <return>  to replace it with another command,\MessageBreak or  <return>  to continue without it.}\GenericError  {(inputenc)                }{Package inputenc Error: Unicode char \u8:题 not set up for use with LaTeX}{See the inputenc package documentation for explanation.}{Your command was ignored.\MessageBreak Type  I <command> <return>  to replace it with another command,\MessageBreak or  <return>  to continue without it.}\GenericError  {(inputenc)                }{Package inputenc Error: Unicode char \u8:（ not set up for use with LaTeX}{See the inputenc package documentation for explanation.}{Your command was ignored.\MessageBreak Type  I <command> <return>  to replace it with another command,\MessageBreak or  <return>  to continue without it.}(LCS)}{8}{subsubsection.2.4.1}}
\@writefile{toc}{\contentsline {subsubsection}{\numberline {2.4.2}字符串编辑距离}{9}{subsubsection.2.4.2}}
\@writefile{toc}{\contentsline {subsubsection}{\numberline {2.4.3}01背包问题}{10}{subsubsection.2.4.3}}
\@writefile{toc}{\contentsline {subsection}{\numberline {2.5}\GenericError  {(inputenc)                }{Package inputenc Error: Unicode char \u8:排 not set up for use with LaTeX}{See the inputenc package documentation for explanation.}{Your command was ignored.\MessageBreak Type  I <command> <return>  to replace it with another command,\MessageBreak or  <return>  to continue without it.}\GenericError  {(inputenc)                }{Package inputenc Error: Unicode char \u8:序 not set up for use with LaTeX}{See the inputenc package documentation for explanation.}{Your command was ignored.\MessageBreak Type  I <command> <return>  to replace it with another command,\MessageBreak or  <return>  to continue without it.}}{12}{subsection.2.5}}
\@writefile{toc}{\contentsline {subsubsection}{\numberline {2.5.1}\GenericError  {(inputenc)                }{Package inputenc Error: Unicode char \u8:堆 not set up for use with LaTeX}{See the inputenc package documentation for explanation.}{Your command was ignored.\MessageBreak Type  I <command> <return>  to replace it with another command,\MessageBreak or  <return>  to continue without it.}\GenericError  {(inputenc)                }{Package inputenc Error: Unicode char \u8:排 not set up for use with LaTeX}{See the inputenc package documentation for explanation.}{Your command was ignored.\MessageBreak Type  I <command> <return>  to replace it with another command,\MessageBreak or  <return>  to continue without it.}\GenericError  {(inputenc)                }{Package inputenc Error: Unicode char \u8:序 not set up for use with LaTeX}{See the inputenc package documentation for explanation.}{Your command was ignored.\MessageBreak Type  I <command> <return>  to replace it with another command,\MessageBreak or  <return>  to continue without it.}}{12}{subsubsection.2.5.1}}
\@writefile{toc}{\contentsline {subsection}{\numberline {2.6}查找}{13}{subsection.2.6}}
\@writefile{toc}{\contentsline {subsubsection}{\numberline {2.6.1}二分查找}{13}{subsubsection.2.6.1}}
\@writefile{toc}{\contentsline {subsubsection}{\numberline {2.6.2}\GenericError  {(inputenc)                }{Package inputenc Error: Unicode char \u8:排 not set up for use with LaTeX}{See the inputenc package documentation for explanation.}{Your command was ignored.\MessageBreak Type  I <command> <return>  to replace it with another command,\MessageBreak or  <return>  to continue without it.}\GenericError  {(inputenc)                }{Package inputenc Error: Unicode char \u8:序 not set up for use with LaTeX}{See the inputenc package documentation for explanation.}{Your command was ignored.\MessageBreak Type  I <command> <return>  to replace it with another command,\MessageBreak or  <return>  to continue without it.}}{14}{subsubsection.2.6.2}}
\@writefile{toc}{\contentsline {section}{\numberline {3}概率题}{17}{section.3}}
\@writefile{toc}{\contentsline {subsection}{\numberline {3.1}抛硬币 连续n个正面 }{17}{subsection.3.1}}
\@writefile{toc}{\contentsline {subsection}{\numberline {3.2}}{17}{subsection.3.2}}
\@writefile{toc}{\contentsline {section}{\numberline {4}海量数据处理}{17}{section.4}}
\@writefile{toc}{\contentsline {subsection}{\numberline {4.1}十道海量数据处理面试题}{17}{subsection.4.1}}
\@writefile{toc}{\contentsline {subsubsection}{\numberline {4.1.1}海量日志数据，提取出某日访问百度次数最多的那个IP。}{17}{subsubsection.4.1.1}}
\@writefile{toc}{\contentsline {subsection}{\numberline {4.2}搜索引擎会通过日志文件把用户每次检索使用的所有检索串都记录下来，每个查询串的长度为1-255字节。 假设目前有一千万个记录（这些查询串的重复度比较高，虽然总数是1千万，但如果除去重复后，不超过3百万个。一个查询串的重复度越高，说明查询它的用户越多，也就是越热门。），请你统计最热门的10个查询串，要求使用的内存不能超过$1G$。}{18}{subsection.4.2}}
\@writefile{toc}{\contentsline {section}{\numberline {5}机器学习}{18}{section.5}}
\@writefile{toc}{\contentsline {subsection}{\numberline {5.1}基础知识}{18}{subsection.5.1}}
\@writefile{toc}{\contentsline {subsubsection}{\numberline {5.1.1}损失函数}{18}{subsubsection.5.1.1}}
\@writefile{toc}{\contentsline {subsubsection}{\numberline {5.1.2}激活函数}{19}{subsubsection.5.1.2}}
\@writefile{toc}{\contentsline {subsubsection}{\numberline {5.1.3}梯度下降}{19}{subsubsection.5.1.3}}
\@writefile{toc}{\contentsline {subsubsection}{\numberline {5.1.4}梯度弥散和梯度爆炸}{19}{subsubsection.5.1.4}}
\@writefile{toc}{\contentsline {subsubsection}{\numberline {5.1.5}过拟合}{19}{subsubsection.5.1.5}}
\@writefile{toc}{\contentsline {subsubsection}{\numberline {5.1.6}VC维}{20}{subsubsection.5.1.6}}
\@writefile{toc}{\contentsline {subsubsection}{\numberline {5.1.7}特征选择}{21}{subsubsection.5.1.7}}
\@writefile{toc}{\contentsline {subsection}{\numberline {5.2}点击通 过率 (CTR)}{21}{subsection.5.2}}
\@writefile{toc}{\contentsline {subsection}{\numberline {5.3}LR 与 soft max}{21}{subsection.5.3}}
\@writefile{toc}{\contentsline {subsection}{\numberline {5.4}Kmeans算法}{21}{subsection.5.4}}
\@writefile{toc}{\contentsline {subsection}{\numberline {5.5}决策树}{23}{subsection.5.5}}
\@writefile{toc}{\contentsline {subsection}{\numberline {5.6}RandomForest}{24}{subsection.5.6}}
\@writefile{toc}{\contentsline {subsection}{\numberline {5.7}Gradient Boosting Decision Tree (GBDT)}{24}{subsection.5.7}}
\@writefile{toc}{\contentsline {subsection}{\numberline {5.8}推导SVM原理、BP反向传播、随机梯度下降法权重更新公式}{24}{subsection.5.8}}
\@writefile{toc}{\contentsline {subsubsection}{\numberline {5.8.1}核函数}{25}{subsubsection.5.8.1}}
\@writefile{toc}{\contentsline {subsubsection}{\numberline {5.8.2}LR 和 SVM 的异同点}{25}{subsubsection.5.8.2}}
\@writefile{toc}{\contentsline {subsection}{\numberline {5.9}卷积神经网络CNN}{26}{subsection.5.9}}
\@writefile{toc}{\contentsline {subsubsection}{\numberline {5.9.1}局部感知}{26}{subsubsection.5.9.1}}
\@writefile{toc}{\contentsline {subsubsection}{\numberline {5.9.2}池化层}{26}{subsubsection.5.9.2}}
\@writefile{toc}{\contentsline {subsubsection}{\numberline {5.9.3} 为什么CNN要用权值共享？}{26}{subsubsection.5.9.3}}
\@writefile{toc}{\contentsline {subsubsection}{\numberline {5.9.4} 哪些场景用CNN可以，抽象一下这些场景的特征?}{26}{subsubsection.5.9.4}}
\@writefile{toc}{\contentsline {subsubsection}{\numberline {5.9.5}Dropout防止过拟合}{27}{subsubsection.5.9.5}}
\newlabel{section:dropout}{{5.9.5}{27}{Dropout防止过拟合\relax }{subsubsection.5.9.5}{}}
\@writefile{toc}{\contentsline {subsection}{\numberline {5.10}循环神经网络 (RNN)}{27}{subsection.5.10}}
\@writefile{toc}{\contentsline {subsubsection}{\numberline {5.10.1}长短时记忆神经网络 (LSTM) }{27}{subsubsection.5.10.1}}
\@writefile{toc}{\contentsline {section}{\numberline {6}自然语言处理}{27}{section.6}}
\@writefile{toc}{\contentsline {subsection}{\numberline {6.1}分词}{27}{subsection.6.1}}
\@writefile{toc}{\contentsline {subsubsection}{\numberline {6.1.1}常见的分词方法及分类}{27}{subsubsection.6.1.1}}
\@writefile{toc}{\contentsline {subsubsection}{\numberline {6.1.2}如何处理新词与歧意词}{29}{subsubsection.6.1.2}}
\@writefile{toc}{\contentsline {section}{\numberline {7}面经}{29}{section.7}}
\@writefile{toc}{\contentsline {subsection}{\numberline {7.1}京东}{29}{subsection.7.1}}
\@writefile{toc}{\contentsline {subsubsection}{\numberline {7.1.1}2017-07-06 一面}{29}{subsubsection.7.1.1}}
\@writefile{toc}{\contentsline {subsection}{\numberline {7.2}\GenericError  {(inputenc)                }{Package inputenc Error: Unicode char \u8:搜 not set up for use with LaTeX}{See the inputenc package documentation for explanation.}{Your command was ignored.\MessageBreak Type  I <command> <return>  to replace it with another command,\MessageBreak or  <return>  to continue without it.}\GenericError  {(inputenc)                }{Package inputenc Error: Unicode char \u8:狗 not set up for use with LaTeX}{See the inputenc package documentation for explanation.}{Your command was ignored.\MessageBreak Type  I <command> <return>  to replace it with another command,\MessageBreak or  <return>  to continue without it.}\GenericError  {(inputenc)                }{Package inputenc Error: Unicode char \u8:提 not set up for use with LaTeX}{See the inputenc package documentation for explanation.}{Your command was ignored.\MessageBreak Type  I <command> <return>  to replace it with another command,\MessageBreak or  <return>  to continue without it.}\GenericError  {(inputenc)                }{Package inputenc Error: Unicode char \u8:前 not set up for use with LaTeX}{See the inputenc package documentation for explanation.}{Your command was ignored.\MessageBreak Type  I <command> <return>  to replace it with another command,\MessageBreak or  <return>  to continue without it.}\GenericError  {(inputenc)                }{Package inputenc Error: Unicode char \u8:批 not set up for use with LaTeX}{See the inputenc package documentation for explanation.}{Your command was ignored.\MessageBreak Type  I <command> <return>  to replace it with another command,\MessageBreak or  <return>  to continue without it.}}{30}{subsection.7.2}}
\@writefile{toc}{\contentsline {subsubsection}{\numberline {7.2.1}2017-07-10 \GenericError  {(inputenc)                }{Package inputenc Error: Unicode char \u8:技 not set up for use with LaTeX}{See the inputenc package documentation for explanation.}{Your command was ignored.\MessageBreak Type  I <command> <return>  to replace it with another command,\MessageBreak or  <return>  to continue without it.}\GenericError  {(inputenc)                }{Package inputenc Error: Unicode char \u8:术 not set up for use with LaTeX}{See the inputenc package documentation for explanation.}{Your command was ignored.\MessageBreak Type  I <command> <return>  to replace it with another command,\MessageBreak or  <return>  to continue without it.}\GenericError  {(inputenc)                }{Package inputenc Error: Unicode char \u8:面 not set up for use with LaTeX}{See the inputenc package documentation for explanation.}{Your command was ignored.\MessageBreak Type  I <command> <return>  to replace it with another command,\MessageBreak or  <return>  to continue without it.}}{30}{subsubsection.7.2.1}}
